…
# Read example dataset into a data frame
x <- TrotterGleser1952
# If not yet existent create a list of measure names to be used
# measures.concordance <- create.measures.concordance()
# Edit the measures.concordance (not needed for this dataset)
# measures.concordance$own[measures.concordance$short == "Fem1"] <- "Fem"

# get a dataframe with measures to process
dl.trotter.gleser <- prep.statuaar.data(x, d.form = "wide",
   ind = "Appendix_row", sex = "Sex", measures.names = "own", stats = FALSE)
#> Error in loadNamespace(x): there is no package called ‘tidyr’
print(dl.trotter.gleser, n = 3)
#> # A tibble: 920 × 4
#>   Ind   Sex   variable value
#>   <chr> <fct> <chr>    <dbl>
#> 1 1_1   m     Fem1       381
#> 2 1_2   m     Fem1       385
#> 3 1_3   m     Fem1       389
#> # ℹ 917 more rows
…
